{
  "count": 1118,
  "next": "https://pokeapi.co/api/v2/pokemon?offset=3&limit=3",
  "previous": null,
  "results": [
    { "name": "bulbasaur", "url": "https://pokeapi.co/api/v2/pokemon/1/" },
    { "name": "ivysaur", "url": "https://pokeapi.co/api/v2/pokemon/2/" },
    { "name": "venusaur", "url": "https://pokeapi.co/api/v2/pokemon/3/" }
  ]
}
